…
```r
by_month <- stack_posts_questions() %>%
  group_by(month = DATE_TRUNC(DATE(creation_date), MONTH)) %>%
  summarize(n_questions = n(),
            avg_score = mean(score),
            avg_answers = mean(answer_count)) %>%
  collect()
#> Complete
#> Billed: 0 B
#> Downloading first chunk of data.
#> First chunk includes all requested rows.

by_month
#> # A tibble: 155 x 4
#>    month      n_questions avg_score avg_answers
#>    <date>           <int>     <dbl>       <dbl>
#>  1 2014-12-01      157228     1.56        1.45 
#>  2 2009-07-01       32686    13.0         3.37 
#>  3 2016-01-01      182924     1.59        1.40 
#>  4 2008-07-01           4  1154.         31    
#>  5 2015-06-01      189879     1.78        1.43 
#>  6 2015-03-01      192006     1.45        1.40 
#>  7 2018-06-01      156145     1.01        1.24 
#>  8 2013-04-01      173147     2.61        1.70 
#>  9 2017-02-01      176789     1.31        1.33 
#> 10 2021-01-01      172044     0.264       0.888
#> # … with 145 more rows
```
…
```r
by_month_tag <- stack_posts_questions() %>%
    group_by(month = DATE_TRUNC(DATE(creation_date), MONTH)) %>%
    summarize_tags(c("javascript", "java", "python", "c#", "php", "c++"))
#> Complete
#> Billed: 0 B
#> Downloading first chunk of data.
#> First chunk includes all requested rows.
#> Complete
#> Billed: 0 B
#> Downloading first chunk of data.
#> First chunk includes all requested rows.

by_month_tag
#> # A tibble: 925 x 5
#>    month      tag        number  total percent
#>    <date>     <chr>       <int>  <int>   <dbl>
#>  1 2021-05-01 php          6103 178334  0.0342
#>  2 2016-03-01 c++          7038 203678  0.0346
#>  3 2013-12-01 java        17516 167435  0.105 
#>  4 2008-09-01 c#           1650  14267  0.116 
#>  5 2008-08-01 python        124   3846  0.0322
#>  6 2008-08-01 javascript    162   3846  0.0421
#>  7 2014-05-01 php         14882 178727  0.0833
#>  8 2015-01-01 python       9700 167951  0.0578
#>  9 2015-01-01 php         13704 167951  0.0816
#> 10 2014-12-01 php         12428 157228  0.0790
#> # … with 915 more rows
```
…
